<?xml version="1.0"?><svg xmlns="http://www.w3.org/2000/svg" width="24" height="24">
 <g>
  <title>Layer 1</title>
  <g stroke="null" id="svg_1">
   <path fill="#333333" stroke="null" id="svg_2" d="m19.883087,9.2l-0.483364,0l0,-4.6c0,-2.536485 -2.601727,-4.599999 -5.799911,-4.599999l-3.866621,0c-3.198127,0 -5.799906,2.063514 -5.799906,4.599999l0,4.6l-0.483308,0c-0.797487,0 -1.449977,0.517502 -1.449977,1.150002l0,11.499997c0,0.632504 0.652489,1.150002 1.449977,1.150002l16.433055,0c0.797489,0 1.449976,-0.517498 1.449976,-1.150002l0,-11.499997c0.000053,-0.6325 -0.652431,-1.150002 -1.449921,-1.150002zm-6.283268,10.733321l-3.866629,0l0.840991,-3.335001c-0.507729,-0.27632 -0.840991,-0.73968 -0.840991,-1.264999c0.000062,-0.846817 0.865637,-1.53332 1.933344,-1.53332s1.933285,0.686503 1.933285,1.53332c0,0.525316 -0.333208,0.988678 -0.840991,1.264999l0.840991,3.335001zm1.93334,-10.733321l-7.733253,0l0,-4.6c0,-0.845478 0.867266,-1.533317 1.933285,-1.533317l3.866621,0c1.066026,0 1.933348,0.687839 1.933348,1.533317l0,4.6z"/>
  </g>
 </g>
</svg>